STAT115 Homework 1
…
Because we cherrypicked the highest correlations among 100,000 correlations, it is just by chance that we found a few with such a high correlation. We can see in the histogram below that most of the correlations are around the expected value of 0.

hist(dfcor$cor)

Part III: Plotting

Problem 5

Show a plot of the data for the group that had the highest correlation you found in Problem 4.

sim_data %>%
  group_by(group) %>%
  summarise(cor = cor(X, Y, use = "everything", method = "pearson"))

## # A tibble: 100,000 x 2
##    group     cor
##    <int>   <dbl>
##  1     1 -0.152 
##  2     2 -0.343 
##  3     3 -0.112 
##  4     4  0.0479
##  5     5  0.238 
##  6     6 -0.0643
##  7     7  0.0879
##  8     8  0.0225
##  9     9 -0.202 
## 10    10 -0.235 
## #  with 99,990 more rows
…
